DFLIPFLOP/simulation/qsim/dflipflop.msim.vcd
$comment
	File created using the following command:
		vcd file dflipflop.msim.vcd -direction
$end
$date
	Tue Oct 28 09:48:23 2025
$end
$version
	ModelSim Version 10.1d
$end
$timescale
	1ps
$end
$scope module dflipflop_vlg_vec_tst $end
$var reg 1 ! clk $end
$var reg 1 " d $end
$var wire 1 # q $end
$var wire 1 $ qbar $end
$var wire 1 % sampler $end
$scope module i1 $end
$var wire 1 & gnd $end
$var wire 1 ' vcc $end
$var wire 1 ( unknown $end
$var tri1 1 ) devclrn $end
$var tri1 1 * devpor $end
$var tri1 1 + devoe $end
$var wire 1 , q~output_o $end
$var wire 1 - qbar~output_o $end
$var wire 1 . clk~input_o $end
$var wire 1 / d~input_o $end
$var wire 1 0 q~reg0feeder_combout $end
$var wire 1 1 q~reg0_q $end
$upscope $end
$upscope $end
$enddefinitions $end
#0
$dumpvars
1!
1"
x#
x$
x%
0&
1'
x(
1)
1*
1+
x,
x-
1.
1/
x0
01
$end
#3608
0,
0#
#3689
10
#4637
1-
1$
#120000
0"
0%
#120717
0/
#124664
00
#150000
1"
1%
#150587
1/
#154276
10
#180000
0"
0%
#180717
0/
#184664
00
#210000
1"
1%
#210587
1/
#214276
10
#240000
0"
0%
#240717
0/
#244664
00
#250000
1"
1%
#250587
1/
#254276
10
#340000
0!
0%
#340717
0.
#350000
1!
1%
#350587
1.
#352792
11
#356532
1,
1#
#357475
0-
0$
#360000
0!
0%
#360717
0.
#370000
1!
1%
#370587
1.
#380000
0!
0%
#380717
0.
#390000
1!
1%
#390587
1.
#400000
0!
0%
#400717
0.
#410000
1!
1%
#410587
1.
#420000
0!
0%
#420717
0.
#430000
1!
1%
#430587
1.
#440000
0!
0%
#440717
0.
#450000
1!
1%
#450587
1.
#460000
0"
0!
0%
#460717
0.
0/
#464664
00
#470000
1!
1%
#470587
1.
#472792
01
#476400
0,
0#
#477429
1-
1$
#480000
0!
0%
#480717
0.
#490000
1"
1!
1%
#490587
1.
1/
#494276
10
#520000
0"
0%
#520717
0/
#524664
00
#550000
1"
1%
#550587
1/
#554276
10
#580000
0"
0%
#580717
0/
#584664
00
#610000
1"
1%
#610587
1/
#614276
10
#780000
0!
0%
#780717
0.
#810000
1!
1%
#810587
1.
#812792
11
#816532
1,
1#
#817475
0-
0$
#840000
0!
0%
#840717
0.
#870000
1!
1%
#870587
1.
#900000
0!
0%
#900717
0.
#930000
1!
1%
#930587
1.
#960000
0!
0%
#960717
0.
#980000
1!
1%
#980587
1.
